Import and plot spline data from AAA
…
To check the head of the tibble, just do:

tongue

## # A tibble: 462 × 16
##    speaker seconds rec_date            prompt  label TT_displacement TT_velocity
##    <chr>     <dbl> <chr>               <chr>   <chr>           <dbl>       <dbl>
##  1 it01       1.20 29/11/2016 15:11:03 Dico p… max_…            77.9       -7.73
##  2 it01       1.20 29/11/2016 15:11:03 Dico p… max_…            77.9       -7.73
##  3 it01       1.20 29/11/2016 15:11:03 Dico p… max_…            77.9       -7.73
##  4 it01       1.20 29/11/2016 15:11:03 Dico p… max_…            77.9       -7.73
##  5 it01       1.20 29/11/2016 15:11:03 Dico p… max_…            77.9       -7.73
##  6 it01       1.20 29/11/2016 15:11:03 Dico p… max_…            77.9       -7.73
##  7 it01       1.20 29/11/2016 15:11:03 Dico p… max_…            77.9       -7.73
##  8 it01       1.20 29/11/2016 15:11:03 Dico p… max_…            77.9       -7.73
##  9 it01       1.20 29/11/2016 15:11:03 Dico p… max_…            77.9       -7.73
## 10 it01       1.20 29/11/2016 15:11:03 Dico p… max_…            77.9       -7.73
## # ℹ 452 more rows
## # ℹ 9 more variables: TT_abs_velocity <dbl>, TD_displacement <dbl>,
## #   TD_velocity <dbl>, TD_abs_velocity <dbl>, knot <dbl>, spline <chr>,
## #   X <dbl>, Y <dbl>, frame_id <int>
…
tongue <- mutate(tongue, word = word(prompt, 2)) %>%
    left_join(y = stimuli) %>%
    mutate_if(is.character, as.factor)

## Joining with `by = join_by(word)`

Let’s check tongue again.

tongue

## # A tibble: 462 × 27
##    speaker seconds rec_date            prompt  label TT_displacement TT_velocity
##    <fct>     <dbl> <fct>               <fct>   <fct>           <dbl>       <dbl>
##  1 it01       1.20 29/11/2016 15:11:03 Dico p… max_…            77.9       -7.73
##  2 it01       1.20 29/11/2016 15:11:03 Dico p… max_…            77.9       -7.73
##  3 it01       1.20 29/11/2016 15:11:03 Dico p… max_…            77.9       -7.73
##  4 it01       1.20 29/11/2016 15:11:03 Dico p… max_…            77.9       -7.73
##  5 it01       1.20 29/11/2016 15:11:03 Dico p… max_…            77.9       -7.73
##  6 it01       1.20 29/11/2016 15:11:03 Dico p… max_…            77.9       -7.73
##  7 it01       1.20 29/11/2016 15:11:03 Dico p… max_…            77.9       -7.73
##  8 it01       1.20 29/11/2016 15:11:03 Dico p… max_…            77.9       -7.73
##  9 it01       1.20 29/11/2016 15:11:03 Dico p… max_…            77.9       -7.73
## 10 it01       1.20 29/11/2016 15:11:03 Dico p… max_…            77.9       -7.73
## # ℹ 452 more rows
## # ℹ 20 more variables: TT_abs_velocity <dbl>, TD_displacement <dbl>,
## #   TD_velocity <dbl>, TD_abs_velocity <dbl>, knot <dbl>, spline <fct>,
## #   X <dbl>, Y <dbl>, frame_id <int>, word <fct>, item <dbl>, ipa <fct>,
## #   c1 <fct>, c1_phonation <fct>, vowel <fct>, anteropost <fct>, height <fct>,
## #   c2 <fct>, c2_phonation <fct>, c2_place <fct>
…
