Transform spline coordinates between cartesian and polar
…
Transform spline coordinates between cartesian and polar

Stefano Coretta

2021-01-08

It is possible to transform the coordinates of your spline data from cartesian to polar and vice versa, with transform_coord(). Let’s attach the package rticulate and load the data set tongue.

library(rticulate)
data(tongue)
tongue
#> # A tibble: 3,612 x 28
#>    speaker seconds rec_date prompt label TT_displacement TT_velocity
#>    <fct>     <dbl> <fct>    <fct>  <fct>           <dbl>       <dbl>
#>  1 it01       1.31 29/11/2… Dico … max_…            67.1       36.6 
#>  2 it01       1.20 29/11/2… Dico … max_…            77.9       -7.73
#>  3 it01       1.08 29/11/2… Dico … max_…            65.9       21.1 
#>  4 it01       1.12 29/11/2… Dico … max_…            64.4        8.76
#>  5 it01       1.42 29/11/2… Dico … max_…            76.9       -4.72
#>  6 it01       1.35 29/11/2… Dico … max_…            78.1       -5.68
#>  7 it01       1.07 29/11/2… Dico … max_…            69.9      -40.0 
#>  8 it01       1.17 29/11/2… Dico … max_…            78.0       -7.31
#>  9 it01       1.28 29/11/2… Dico … max_…            67.1       34.5 
#> 10 it01       1.10 29/11/2… Dico … max_…            75.9      -23.5 
#> # … with 3,602 more rows, and 21 more variables: TT_abs_velocity <dbl>,
#> #   TD_displacement <dbl>, TD_velocity <dbl>, TD_abs_velocity <dbl>,
#> #   TR_displacement <dbl>, TR_velocity <dbl>, TR_abs_velocity <dbl>,
#> #   fan_line <int>, X <dbl>, Y <dbl>, word <fct>, item <dbl>, ipa <fct>,
#> #   c1 <fct>, c1_phonation <fct>, vowel <fct>, anteropost <fct>, height <fct>,
#> #   c2 <fct>, c2_phonation <fct>, c2_place <fct>
…
